Sbox_d1/glitch_transition_robust/HDL_codes/sbox.vcd
$date
	Sat Feb  1 13:36:05 2025
$end
$version
	Icarus Verilog
$end
$timescale
	1ps
$end
$scope module TB_topSBOX $end
$var wire 8 ! Inp_unshared [7:0] $end
$var wire 8 " OUT_unshared [7:0] $end
$var wire 16 # SB_out [15:0] $end
$var reg 22 $ PRNG [21:0] $end
$var reg 1 % clk $end
$var reg 16 & inp [15:0] $end
$scope module MUT $end
$var wire 22 ' PRNG [21:0] $end
$var wire 8 ( b0 [7:0] $end
$var wire 8 ) b0_prim_to_affine [7:0] $end
$var wire 8 * b1 [7:0] $end
$var wire 8 + b1_prim_to_affine [7:0] $end
$var wire 1 % clk $end
$var wire 16 , inp [15:0] $end
$var wire 8 - p1 [7:0] $end
$var wire 8 . p1_invXORr1 [7:0] $end
$var wire 8 / sb_out1 [7:0] $end
$var wire 8 0 to_const [7:0] $end
$var wire 16 1 tmp2 [15:0] $end
$var wire 16 2 tmp1 [15:0] $end
$var wire 8 3 sb_out0 [7:0] $end
$var wire 8 4 reg_r1 [7:0] $end
$var wire 8 5 reg_q0 [7:0] $end
$var wire 8 6 reg_p1_invXORr1 [7:0] $end
$var wire 2 7 reg_kron_out [1:0] $end
$var wire 8 8 reg_b1Xr0 [7:0] $end
$var wire 8 9 reg_b0Xr0 [7:0] $end
$var wire 8 : r1 [7:0] $end
$var wire 8 ; r0 [7:0] $end
$var wire 8 < p1_inv [7:0] $end
$var wire 8 = p0 [7:0] $end
$var wire 2 > kron_out [1:0] $end
$var wire 16 ? kron_in_reg [15:0] $end
$var wire 2 @ intermed_reg_delta [1:0] $end
$var wire 8 A b1_prim [7:0] $end
$var wire 8 B b1Xr0 [7:0] $end
$var wire 8 C b0_prim [7:0] $end
$var wire 8 D b0Xr0 [7:0] $end
$var wire 16 E SBin_reg [15:0] $end
$var wire 16 F SB_out [15:0] $end
$scope module inst_LM0 $end
$var wire 1 G a0 $end
$var wire 1 H a1 $end
$var wire 1 I a2 $end
$var wire 1 J a3 $end
$var wire 1 K a4 $end
$var wire 1 L a5 $end
$var wire 1 M a6 $end
$var wire 1 N a7 $end
$var wire 8 O b [7:0] $end
$var wire 8 P out [7:0] $end
$upscope $end
$scope module inst_LM1 $end
$var wire 1 Q a0 $end
$var wire 1 R a1 $end
$var wire 1 S a2 $end
$var wire 1 T a3 $end
$var wire 1 U a4 $end
$var wire 1 V a5 $end
$var wire 1 W a6 $end
$var wire 1 X a7 $end
$var wire 8 Y b [7:0] $end
$var wire 8 Z out [7:0] $end
$upscope $end
$scope module inst_inv $end
$var wire 8 [ X [0:7] $end
$var wire 1 \ y1 $end
$var wire 1 ] y10 $end
$var wire 1 ^ y11 $end
$var wire 1 _ y12 $end
$var wire 1 ` y13 $end
$var wire 1 a y14 $end
$var wire 1 b y15 $end
$var wire 1 c y16 $end
$var wire 1 d y17 $end
$var wire 1 e y18 $end
$var wire 1 f y19 $end
$var wire 1 g y2 $end
$var wire 1 h y20 $end
$var wire 1 i y21 $end
$var wire 1 j y3 $end
$var wire 1 k y4 $end
$var wire 1 l y5 $end
$var wire 1 m y6 $end
$var wire 1 n y7 $end
$var wire 1 o y8 $end
$var wire 1 p y9 $end
$var wire 18 q z [17:0] $end
$var wire 46 r t [45:0] $end
$var wire 8 s Out [7:0] $end
$upscope $end
$scope module inst_kronecker $end
$var wire 1 % clk $end
$var wire 1 t r7 $end
$var wire 6 u rand [5:0] $end
$var wire 2 v w6 [1:0] $end
$var wire 2 w w5 [1:0] $end
$var wire 2 x w4 [1:0] $end
$var wire 2 y w3 [1:0] $end
$var wire 2 z w2 [1:0] $end
$var wire 2 { w1 [1:0] $end
$var wire 8 | share1 [7:0] $end
$var wire 8 } share0 [7:0] $end
$var wire 1 ~ r6 $end
$var wire 1 !" r5 $end
$var wire 1 "" r4 $end
$var wire 1 #" r3 $end
$var wire 1 $" r2 $end
$var wire 1 %" r1 $end
$var wire 16 &" inp [15:0] $end
$var wire 2 '" by3 [1:0] $end
$var wire 2 (" by2 [1:0] $end
$var wire 2 )" by1 [1:0] $end
$var wire 2 *" by0 [1:0] $end
$var wire 2 +" bx3 [1:0] $end
$var wire 2 ," bx2 [1:0] $end
$var wire 2 -" bx1 [1:0] $end
$var wire 2 ." bx0 [1:0] $end
$var wire 2 /" Z [1:0] $end
$scope module G1 $end
$var wire 1 0" AND0 $end
$var wire 1 1" AND1 $end
$var wire 1 2" AND2 $end
$var wire 1 3" AND3 $end
$var wire 2 4" bx [1:0] $end
$var wire 2 5" by [1:0] $end
$var wire 1 % clk $end
$var wire 1 %" r $end
$var wire 1 6" xorout0 $end
$var wire 1 7" xorout1 $end
$var wire 1 8" xorout2 $end
$var wire 1 9" xorout3 $end
$var wire 1 :" reg_out3 $end
$var wire 1 ;" reg_out2 $end
$var wire 1 <" reg_out1 $end
$var wire 1 =" reg_out0 $end
$var wire 2 >" bz [1:0] $end
$scope module DFF0 $end
$var wire 1 % clk $end
$var wire 1 6" in $end
$var wire 1 =" out $end
$var parameter 32 ?" N $end
$var reg 1 =" r_out $end
$upscope $end
$scope module DFF1 $end
$var wire 1 % clk $end
$var wire 1 7" in $end
$var wire 1 <" out $end
$var parameter 32 @" N $end
$var reg 1 <" r_out $end
$upscope $end
$scope module DFF2 $end
$var wire 1 % clk $end
$var wire 1 0" in $end
$var wire 1 ;" out $end
$var parameter 32 A" N $end
$var reg 1 ;" r_out $end
$upscope $end
$scope module DFF3 $end
$var wire 1 % clk $end
$var wire 1 3" in $end
$var wire 1 :" out $end
$var parameter 32 B" N $end
$var reg 1 :" r_out $end
$upscope $end
$upscope $end
$scope module G2 $end
$var wire 1 C" AND0 $end
$var wire 1 D" AND1 $end
$var wire 1 E" AND2 $end
$var wire 1 F" AND3 $end
$var wire 2 G" bx [1:0] $end
$var wire 2 H" by [1:0] $end
$var wire 1 % clk $end
$var wire 1 $" r $end
$var wire 1 I" xorout0 $end
$var wire 1 J" xorout1 $end
$var wire 1 K" xorout2 $end
$var wire 1 L" xorout3 $end
$var wire 1 M" reg_out3 $end
$var wire 1 N" reg_out2 $end
$var wire 1 O" reg_out1 $end
$var wire 1 P" reg_out0 $end
$var wire 2 Q" bz [1:0] $end
$scope module DFF0 $end
$var wire 1 % clk $end
$var wire 1 I" in $end
$var wire 1 P" out $end
$var parameter 32 R" N $end
$var reg 1 P" r_out $end
$upscope $end
$scope module DFF1 $end
$var wire 1 % clk $end
$var wire 1 J" in $end
$var wire 1 O" out $end
$var parameter 32 S" N $end
$var reg 1 O" r_out $end
$upscope $end
$scope module DFF2 $end
$var wire 1 % clk $end
$var wire 1 C" in $end
$var wire 1 N" out $end
$var parameter 32 T" N $end
$var reg 1 N" r_out $end
$upscope $end
$scope module DFF3 $end
$var wire 1 % clk $end
$var wire 1 F" in $end
$var wire 1 M" out $end
$var parameter 32 U" N $end
$var reg 1 M" r_out $end
$upscope $end
$upscope $end
$scope module G3 $end
$var wire 1 V" AND0 $end
$var wire 1 W" AND1 $end
$var wire 1 X" AND2 $end
$var wire 1 Y" AND3 $end
$var wire 2 Z" bx [1:0] $end
$var wire 2 [" by [1:0] $end
$var wire 1 % clk $end
$var wire 1 #" r $end
$var wire 1 \" xorout0 $end
$var wire 1 ]" xorout1 $end
$var wire 1 ^" xorout2 $end
$var wire 1 _" xorout3 $end
$var wire 1 `" reg_out3 $end
$var wire 1 a" reg_out2 $end
$var wire 1 b" reg_out1 $end
$var wire 1 c" reg_out0 $end
$var wire 2 d" bz [1:0] $end
$scope module DFF0 $end
$var wire 1 % clk $end
$var wire 1 \" in $end
$var wire 1 c" out $end
$var parameter 32 e" N $end
$var reg 1 c" r_out $end
$upscope $end
$scope module DFF1 $end
$var wire 1 % clk $end
$var wire 1 ]" in $end
$var wire 1 b" out $end
$var parameter 32 f" N $end
$var reg 1 b" r_out $end
$upscope $end
$scope module DFF2 $end
$var wire 1 % clk $end
$var wire 1 V" in $end
$var wire 1 a" out $end
$var parameter 32 g" N $end
$var reg 1 a" r_out $end
$upscope $end
$scope module DFF3 $end
$var wire 1 % clk $end
$var wire 1 Y" in $end
$var wire 1 `" out $end
$var parameter 32 h" N $end
$var reg 1 `" r_out $end
$upscope $end
$upscope $end
$scope module G4 $end
$var wire 1 i" AND0 $end
$var wire 1 j" AND1 $end
$var wire 1 k" AND2 $end
$var wire 1 l" AND3 $end
$var wire 2 m" bx [1:0] $end
$var wire 2 n" by [1:0] $end
$var wire 1 % clk $end
$var wire 1 "" r $end
$var wire 1 o" xorout0 $end
$var wire 1 p" xorout1 $end
$var wire 1 q" xorout2 $end
$var wire 1 r" xorout3 $end
$var wire 1 s" reg_out3 $end
$var wire 1 t" reg_out2 $end
$var wire 1 u" reg_out1 $end
$var wire 1 v" reg_out0 $end
$var wire 2 w" bz [1:0] $end
$scope module DFF0 $end
$var wire 1 % clk $end
$var wire 1 o" in $end
$var wire 1 v" out $end
$var parameter 32 x" N $end
$var reg 1 v" r_out $end
$upscope $end
$scope module DFF1 $end
$var wire 1 % clk $end
$var wire 1 p" in $end
$var wire 1 u" out $end
$var parameter 32 y" N $end
$var reg 1 u" r_out $end
$upscope $end
$scope module DFF2 $end
$var wire 1 % clk $end
$var wire 1 i" in $end
$var wire 1 t" out $end
$var parameter 32 z" N $end
$var reg 1 t" r_out $end
$upscope $end
$scope module DFF3 $end
$var wire 1 % clk $end
$var wire 1 l" in $end
$var wire 1 s" out $end
$var parameter 32 {" N $end
$var reg 1 s" r_out $end
$upscope $end
$upscope $end
$scope module G5 $end
$var wire 1 |" AND0 $end
$var wire 1 }" AND1 $end
$var wire 1 ~" AND2 $end
$var wire 1 !# AND3 $end
$var wire 2 "# bx [1:0] $end
$var wire 2 ## by [1:0] $end
$var wire 1 % clk $end
$var wire 1 !" r $end
$var wire 1 $# xorout0 $end
$var wire 1 %# xorout1 $end
$var wire 1 &# xorout2 $end
$var wire 1 '# xorout3 $end
$var wire 1 (# reg_out3 $end
$var wire 1 )# reg_out2 $end
$var wire 1 *# reg_out1 $end
$var wire 1 +# reg_out0 $end
$var wire 2 ,# bz [1:0] $end
$scope module DFF0 $end
$var wire 1 % clk $end
$var wire 1 $# in $end
$var wire 1 +# out $end
$var parameter 32 -# N $end
$var reg 1 +# r_out $end
$upscope $end
$scope module DFF1 $end
$var wire 1 % clk $end
$var wire 1 %# in $end
$var wire 1 *# out $end
$var parameter 32 .# N $end
$var reg 1 *# r_out $end
$upscope $end
$scope module DFF2 $end
$var wire 1 % clk $end
$var wire 1 |" in $end
$var wire 1 )# out $end
$var parameter 32 /# N $end
$var reg 1 )# r_out $end
$upscope $end
$scope module DFF3 $end
$var wire 1 % clk $end
$var wire 1 !# in $end
$var wire 1 (# out $end
$var parameter 32 0# N $end
$var reg 1 (# r_out $end
$upscope $end
$upscope $end
$scope module G6 $end
$var wire 1 1# AND0 $end
$var wire 1 2# AND1 $end
$var wire 1 3# AND2 $end
$var wire 1 4# AND3 $end
$var wire 2 5# bx [1:0] $end
$var wire 2 6# by [1:0] $end
$var wire 1 % clk $end
$var wire 1 ~ r $end
$var wire 1 7# xorout0 $end
$var wire 1 8# xorout1 $end
$var wire 1 9# xorout2 $end
$var wire 1 :# xorout3 $end
$var wire 1 ;# reg_out3 $end
$var wire 1 <# reg_out2 $end
$var wire 1 =# reg_out1 $end
$var wire 1 ># reg_out0 $end
$var wire 2 ?# bz [1:0] $end
$scope module DFF0 $end
$var wire 1 % clk $end
$var wire 1 7# in $end
$var wire 1 ># out $end
$var parameter 32 @# N $end
$var reg 1 ># r_out $end
$upscope $end
$scope module DFF1 $end
$var wire 1 % clk $end
$var wire 1 8# in $end
$var wire 1 =# out $end
$var parameter 32 A# N $end
$var reg 1 =# r_out $end
$upscope $end
$scope module DFF2 $end
$var wire 1 % clk $end
$var wire 1 1# in $end
$var wire 1 <# out $end
$var parameter 32 B# N $end
$var reg 1 <# r_out $end
$upscope $end
$scope module DFF3 $end
$var wire 1 % clk $end
$var wire 1 4# in $end
$var wire 1 ;# out $end
$var parameter 32 C# N $end
$var reg 1 ;# r_out $end
$upscope $end
$upscope $end
$scope module G7 $end
$var wire 1 D# AND0 $end
$var wire 1 E# AND1 $end
$var wire 1 F# AND2 $end
$var wire 1 G# AND3 $end
$var wire 2 H# bx [1:0] $end
$var wire 2 I# by [1:0] $end
$var wire 1 % clk $end
$var wire 1 t r $end
$var wire 1 J# xorout0 $end
$var wire 1 K# xorout1 $end
$var wire 1 L# xorout2 $end
$var wire 1 M# xorout3 $end
$var wire 1 N# reg_out3 $end
$var wire 1 O# reg_out2 $end
$var wire 1 P# reg_out1 $end
$var wire 1 Q# reg_out0 $end
$var wire 2 R# bz [1:0] $end
$scope module DFF0 $end
$var wire 1 % clk $end
$var wire 1 J# in $end
$var wire 1 Q# out $end
$var parameter 32 S# N $end
$var reg 1 Q# r_out $end
$upscope $end
$scope module DFF1 $end
$var wire 1 % clk $end
$var wire 1 K# in $end
$var wire 1 P# out $end
$var parameter 32 T# N $end
$var reg 1 P# r_out $end
$upscope $end
$scope module DFF2 $end
$var wire 1 % clk $end
$var wire 1 D# in $end
$var wire 1 O# out $end
$var parameter 32 U# N $end
$var reg 1 O# r_out $end
$upscope $end
$scope module DFF3 $end
$var wire 1 % clk $end
$var wire 1 G# in $end
$var wire 1 N# out $end
$var parameter 32 V# N $end
$var reg 1 N# r_out $end
$upscope $end
$upscope $end
$upscope $end
$scope module inst_mult0 $end
$var wire 8 W# b [7:0] $end
$var wire 8 X# a [7:0] $end
$var reg 4 Y# i [3:0] $end
$var reg 16 Z# product [15:0] $end
$var reg 8 [# result [7:0] $end
$upscope $end
$scope module inst_mult1 $end
$var wire 8 \# b [7:0] $end
$var wire 8 ]# a [7:0] $end
$var reg 4 ^# i [3:0] $end
$var reg 16 _# product [15:0] $end
$var reg 8 `# result [7:0] $end
$upscope $end
$scope module inst_mult2 $end
$var wire 8 a# b [7:0] $end
$var wire 8 b# a [7:0] $end
$var reg 4 c# i [3:0] $end
$var reg 16 d# product [15:0] $end
$var reg 8 e# result [7:0] $end
$upscope $end
$scope module inst_mult3 $end
$var wire 8 f# b [7:0] $end
$var wire 8 g# a [7:0] $end
$var reg 4 h# i [3:0] $end
$var reg 16 i# product [15:0] $end
$var reg 8 j# result [7:0] $end
$upscope $end
$scope module inst_r0_zero_mapper $end
$var wire 1 % clk $end
$var wire 1 k# nor_to_sel $end
$var wire 8 l# r0_in [7:0] $end
$var wire 8 m# r0_out [7:0] $end
$var wire 8 n# mux_out [7:0] $end
$var wire 8 o# mapped_val [7:0] $end
$scope module inst_reg0 $end
$var wire 1 % clk $end
$var wire 8 p# out [7:0] $end
$var wire 8 q# in [7:0] $end
$var parameter 32 r# N $end
$var reg 8 s# r_out [7:0] $end
$upscope $end
$scope module mux_inst $end
$var wire 8 t# a [7:0] $end
$var wire 8 u# b [7:0] $end
$var wire 1 k# sel $end
$var wire 8 v# y [7:0] $end
$upscope $end
$upscope $end
$scope module inst_reg0_B2M0 $end
$var wire 1 % clk $end
$var wire 8 w# in [7:0] $end
$var wire 8 x# out [7:0] $end
$var parameter 32 y# N $end
$var reg 8 z# r_out [7:0] $end
$upscope $end
$scope module inst_reg0_M2B0 $end
$var wire 1 % clk $end
$var wire 8 {# out [7:0] $end
$var wire 8 |# in [7:0] $end
$var parameter 32 }# N $end
$var reg 8 ~# r_out [7:0] $end
$upscope $end
$scope module inst_reg1_B2M0 $end
$var wire 1 % clk $end
$var wire 8 !$ in [7:0] $end
$var wire 8 "$ out [7:0] $end
$var parameter 32 #$ N $end
$var reg 8 $$ r_out [7:0] $end
$upscope $end
$scope module inst_reg1_M2B0 $end
$var wire 1 % clk $end
$var wire 8 %$ in [7:0] $end
$var wire 8 &$ out [7:0] $end
$var parameter 32 '$ N $end
$var reg 8 ($ r_out [7:0] $end
$upscope $end
$scope module inst_reg2_B2M0 $end
$var wire 1 % clk $end
$var wire 8 )$ in [7:0] $end
$var wire 8 *$ out [7:0] $end
$var parameter 32 +$ N $end
$var reg 8 ,$ r_out [7:0] $end
$upscope $end
$scope module inst_reg2_M2B0 $end
$var wire 1 % clk $end
$var wire 8 -$ in [7:0] $end
$var wire 8 .$ out [7:0] $end
$var parameter 32 /$ N $end
$var reg 8 0$ r_out [7:0] $end
$upscope $end
$scope module inst_reg_delta0 $end
$var wire 1 % clk $end
$var wire 2 1$ in [1:0] $end
$var wire 2 2$ out [1:0] $end
$var parameter 32 3$ N $end
$var reg 2 4$ r_out [1:0] $end
$upscope $end
$scope module inst_reg_delta1 $end
$var wire 1 % clk $end
$var wire 2 5$ in [1:0] $end
$var wire 2 6$ out [1:0] $end
$var parameter 32 7$ N $end
$var reg 2 8$ r_out [1:0] $end
$upscope $end
$scope module pip1_B4_SBin $end
$var wire 1 % clk $end
$var wire 16 9$ out [15:0] $end
$var wire 16 :$ in [15:0] $end
$var parameter 32 ;$ N $end
$var reg 16 <$ r_out [15:0] $end
$upscope $end
$scope module pip2_B4_SBin $end
$var wire 1 % clk $end
$var wire 16 =$ in [15:0] $end
$var wire 16 >$ out [15:0] $end
$var parameter 32 ?$ N $end
$var reg 16 @$ r_out [15:0] $end
$upscope $end
$scope module pip3_B4_SBin $end
$var wire 1 % clk $end
$var wire 16 A$ in [15:0] $end
$var wire 16 B$ out [15:0] $end
$var parameter 32 C$ N $end
$var reg 16 D$ r_out [15:0] $end
$upscope $end
$scope module pip_B4_Kronin $end
$var wire 1 % clk $end
$var wire 16 E$ in [15:0] $end
$var wire 16 F$ out [15:0] $end
$var parameter 32 G$ N $end
$var reg 16 H$ r_out [15:0] $end
$upscope $end
$scope module pip_B4r1 $end
$var wire 1 % clk $end
$var wire 8 I$ in [7:0] $end
$var wire 8 J$ out [7:0] $end
$var parameter 32 K$ N $end
$var reg 8 L$ r_out [7:0] $end
$upscope $end
$upscope $end
$upscope $end
$enddefinitions $end
$comment Show the parameter values. $end
$dumpall
b1000 K$
b10000 G$
b10000 C$
b10000 ?$
b10000 ;$
b10 7$
b10 3$
b1000 /$
b1000 +$
b1000 '$
b1000 #$
b1000 }#
b1000 y#
b1000 r#
b1 V#
b1 U#
b1 T#
b1 S#
b1 C#
b1 B#
b1 A#
b1 @#
b1 0#
b1 /#
b1 .#
b1 -#
b1 {"
b1 z"
b1 y"
b1 x"
b1 h"
b1 g"
b1 f"
b1 e"
b1 U"
b1 T"
b1 S"
b1 R"
b1 B"
b1 A"
b1 @"
b1 ?"
$end
#0
$dumpvars
bx L$
bx J$
b110101 I$
bx H$
bx F$
b1010101000000000 E$
bx D$
bx B$
bx A$
bx @$
bx >$
bx =$
bx <$
bx :$
bx 9$
bx 8$
bx 6$
bx 5$
bx 4$
bx 2$
bx 1$
bx 0$
bx .$
bx -$
bx ,$
bx *$
bx )$
bx ($
bx &$
bx %$
bx $$
bx "$
bx !$
bx ~#
bx |#
bx {#
bx z#
bx x#
bx w#
b100100 v#
bx1xxx1xx u#
b100100 t#
bx s#
b100100 q#
bx p#
bx1xxx1xx o#
b100100 n#
bx m#
b100100 l#
0k#
bx j#
bx i#
bx h#
bx g#
bx f#
bx e#
bx d#
bx c#
bx b#
bx a#
bx `#
bx _#
bx ^#
bx ]#
bx \#
bx [#
bx Z#
bx Y#
bx X#
bx W#
bx R#
xQ#
xP#
xO#
xN#
xM#
xL#
xK#
xJ#
bx I#
bx H#
xG#
xF#
xE#
xD#
bx ?#
x>#
x=#
x<#
x;#
x:#
x9#
x8#
x7#
bx 6#
bx 5#
x4#
x3#
x2#
x1#
bx ,#
x+#
x*#
x)#
x(#
x'#
x&#
x%#
x$#
bx ##
bx "#
x!#
x~"
x}"
x|"
bx w"
xv"
xu"
xt"
xs"
xr"
xq"
xp"
xo"
bx n"
bx m"
xl"
xk"
xj"
xi"
bx d"
xc"
xb"
xa"
x`"
x_"
x^"
x]"
x\"
bx ["
bx Z"
xY"
xX"
xW"
xV"
bx Q"
xP"
xO"
xN"
xM"
xL"
xK"
xJ"
xI"
bx H"
bx G"
xF"
xE"
xD"
xC"
bx >"
x="
x<"
x;"
x:"
x9"
x8"
x7"
x6"
bx 5"
bx 4"
x3"
x2"
x1"
x0"
bx /"
bx ."
bx -"
bx ,"
bx +"
bx *"
bx )"
bx ("
bx '"
bx &"
1%"
0$"
1#"
0""
1!"
0~
bx }
bx |
bx {
bx z
bx y
bx x
bx w
bx v
b10101 u
1t
bx s
bx r
bx q
xp
xo
xn
xm
xl
xk
xj
xi
xh
xg
xf
xe
xd
xc
xb
xa
x`
x_
x^
x]
x\
bx [
bx Z
bx Y
xX
xW
xV
xU
xT
xS
xR
xQ
bx P
bx O
xN
xM
xL
xK
xJ
xI
xH
xG
bx F
bx E
bx D
bx C
bx B
bx A
bx @
bx ?
bx >
bx =
bx <
bx ;
bx :
bx 9
bx 8
bx 7
bx 6
bx 5
bx 4
bx 3
bx 2
bx 1
bx 0
bx /
bx .
bx -
b1010101000000000 ,
bx +
bx *
bx )
bx (
b101010011010100100100 '
b1010101000000000 &
0%
b101010011010100100100 $
bx #
bx "
b10101010 !
$end
#5000
00"
0C"
0V"
0i"
17"
16"
0J"
0I"
1]"
1\"
0p"
0o"
02"
01"
03"
0E"
0D"
0F"
0X"
0W"
0Y"
0k"
0j"
0l"
b1 ."
b1 4"
b0 *"
b0 5"
b1 -"
b1 G"
b0 )"
b0 H"
b1 ,"
b1 Z"
b0 ("
b0 ["
b1 +"
b1 m"
b0 '"
b0 n"
b1000111 o#
b1000111 u#
b0 D
b0 [#
b0 !$
b111 Y#
b0 Z#
b0 B
b0 `#
b0 )$
b111 ^#
b0 _#
b10101010 |
b0 }
b100100 ;
b100100 X#
b100100 ]#
b100100 m#
b100100 p#
b100100 s#
b100100 w#
b110101 :
b110101 |#
b110101 J$
b110101 L$
b1010101000000000 ?
b1010101000000000 &"
b1010101000000000 :$
b1010101000000000 F$
b1010101000000000 H$
1%
#10000
b11 o#
b11 u#
0\"
0]"
1o"
1p"
b0 !
b10000001 n#
b10000001 q#
b10000001 v#
0#"
1""
0!"
b10000001 l#
b10000001 t#
b1011110 I$
b1001 u
0%
b11001100110011 &
b11001100110011 ,
b11001100110011 E$
b10010101111010000001 $
b10010101111010000001 '
#15000
b1011110 .
b1011110 %$
b0 <
b0 s
0e
0i
0c
0n
0d
0f
0^
0]
0m
0j
0h
0b
0g
0k
0l
0\
1C"
1i"
16"
0\"
0_
08#
07#
0%#
0$#
01"
13"
0W"
1Y"
0o
0p
0`
0a
b0 r
b0 q
03#
04#
01#
02#
0~"
0!#
0|"
0}"
b1 )"
b1 H"
b1 '"
b1 n"
b10 ."
b10 4"
b10 *"
b10 5"
b10 ,"
b10 Z"
b10 ("
b10 ["
b111 h#
b0xxxxxxxxxxxxx i#
b0 -
b0 [
1r"
b11 x
b11 w"
b11 6#
1q"
0_"
b0 y
b0 d"
b0 5#
0^"
0L"
b0 z
b0 Q"
b0 ##
0K"
19"
b11 {
b11 >"
b11 "#
18"
b110011 |
b110011 }
b10100001 o#
b10100001 u#
b111 Y#
b111 ^#
b110101 4
b110101 f#
b110101 {#
b110101 ~#
b0 8
b0 *$
b0 ,$
b0 9
b0 "$
b0 $$
b100100 =
b100100 x#
b100100 -$
b100100 z#
b1010101000000000 2
b1010101000000000 9$
b1010101000000000 =$
b1010101000000000 <$
0s"
0t"
1u"
1v"
0`"
0a"
0b"
0c"
0M"
0N"
0O"
0P"
0:"
0;"
1<"
1="
b11001100110011 ?
b11001100110011 &"
b11001100110011 :$
b11001100110011 F$
b11001100110011 H$
b1011110 :
b1011110 |#
b1011110 J$
b1011110 L$
b10000001 ;
b10000001 X#
b10000001 ]#
b10000001 m#
b10000001 p#
b10000001 s#
b10000001 w#
1%
#20000
06"
07"
1\"
1]"
0o"
0p"
b110 !
b1001 n#
b1001 q#
b1001 v#
0t
0%"
1#"
0""
b1001 l#
b1001 t#
b11010110 I$
b100 u
0%
b111011001110000 &
b111011001110000 ,
b111011001110000 E$
b1001101011000001001 $
b1001101011000001001 '
#25000
b11xxxxx "
b0xxxxx /
1V
1W
b11xxxxx 0
b11xxxxx Z
0X
1L
1M
b0xxxxx011xxxxx #
b0xxxxx011xxxxx F
b11xxxxx 3
b11xxxxx P
0N
0C"
0i"
1p"
03"
1k"
1%#
0K#
0J#
b0 -"
b0 G"
1~"
11#
0D#
0F#
0E#
0G#
b1 ."
b1 4"
b0 *"
b0 5"
b10 +"
b10 m"
b101011x +
b101011x Y
b101011x )
b101011x O
b101011 o#
b101011 u#
b111 Y#
b111 ^#
b11010110 .
b11010110 %$
b1110110 |
b1110000 }
b10 {
b10 >"
b10 "#
08"
b1 z
b1 Q"
b1 ##
1K"
b1 y
b1 d"
b1 5#
1^"
b1 x
b1 w"
b1 6#
0r"
0&#
b0 w
b0 ,#
b0 H#
0'#
09#
b0 v
b0 ?#
b0 I#
0:#
b1010110 A
b1010110 e#
b111 c#
b1010110 d#
b1010110 C
b1010110 j#
b111 h#
b1010110 i#
b1001 ;
b1001 X#
b1001 ]#
b1001 m#
b1001 p#
b1001 s#
b1001 w#
b11010110 :
b11010110 |#
b11010110 J$
b11010110 L$
b111011001110000 ?
b111011001110000 &"
b111011001110000 :$
b111011001110000 F$
b111011001110000 H$
0="
0<"
1:"
1N"
1c"
1b"
1`"
0v"
0u"
1t"
0+#
0*#
0)#
0(#
0>#
0=#
0<#
0;#
b11001100110011 2
b11001100110011 9$
b11001100110011 =$
b11001100110011 <$
b1010101000000000 1
b1010101000000000 >$
b1010101000000000 A$
b1010101000000000 @$
b10000001 =
b10000001 x#
b10000001 -$
b10000001 z#
b1011110 4
b1011110 f#
b1011110 {#
b1011110 ~#
b1011110 6
b1011110 a#
b1011110 &$
b1011110 ($
b100100 5
b100100 b#
b100100 g#
b100100 .$
b100100 0$
1%
#30000
0\"
0]"
1$#
0%#
17#
18#
b0 !
b1100011 n#
b1100011 q#
b1100011 v#
0#"
1!"
1~
b1100011 l#
b1100011 t#
b1010110 I$
b110000 u
0%
b10001000100010 &
b10001000100010 ,
b10001000100010 E$
b1100000101011001100011 $
b1100000101011001100011 '
#35000
b11xxxxx "
1\"
b10xxxxx /
0X
0N
1C"
1W"
1i"
16"
0p"
b1xxxxx 0
b1xxxxx Z
0W
b10xxxxx001xxxxx #
b10xxxxx001xxxxx F
b1xxxxx 3
b1xxxxx P
0M
1J#
1%#
11"
0Y"
0k"
b1011010 B
b1011010 `#
b1011010 )$
b1011010 _#
1E#
14#
01#
0~"
b1 -"
b1 G"
b1111010x +
b1111010x Y
b1111010x )
b1111010x O
b0 (
b0 W#
b10101010 *
b10101010 \#
b10 *"
b10 5"
b1 ,"
b1 Z"
b1 +"
b1 m"
b11110100 A
b11110100 e#
b111 c#
b11110100 d#
b11110100 C
b11110100 j#
b111 h#
b11110100 i#
0M#
b0 >
b0 /"
b0 R#
b0 1$
0L#
b10 v
b10 ?#
b10 I#
1:#
b1 w
b1 ,#
b1 H#
1&#
0q"
b10 x
b10 w"
b10 6#
1r"
1_"
b10 y
b10 d"
b10 5#
0^"
b0 z
b0 Q"
b0 ##
0K"
b0 {
b0 >"
b0 "#
09"
b100010 |
b100010 }
b1010110 .
b1010110 %$
b10001 o#
b10001 u#
b111 Y#
b111 ^#
b10000001 5
b10000001 b#
b10000001 g#
b10000001 .$
b10000001 0$
b11010110 6
b11010110 a#
b11010110 &$
b11010110 ($
b11010110 4
b11010110 f#
b11010110 {#
b11010110 ~#
b1001 =
b1001 x#
b1001 -$
b1001 z#
b1010101000000000 E
b1010101000000000 B$
b1010101000000000 D$
b11001100110011 1
b11001100110011 >$
b11001100110011 A$
b11001100110011 @$
b111011001110000 2
b111011001110000 9$
b111011001110000 =$
b111011001110000 <$
0N#
0O#
0P#
0Q#
1<#
1=#
1>#
1+#
0t"
1u"
0b"
0c"
0N"
0:"
b10001000100010 ?
b10001000100010 &"
b10001000100010 :$
b10001000100010 F$
b10001000100010 H$
b1010110 :
b1010110 |#
b1010110 J$
b1010110 L$
b1100011 ;
b1100011 X#
b1100011 ]#
b1100011 m#
b1100011 p#
b1100011 s#
b1100011 w#
1%
#40000
06"
17"
0J#
1K#
1o"
1p"
b11100001 !
b1101 n#
b1101 q#
b1101 v#
1t
1%"
1""
b1101 l#
b1101 t#
b1111011 I$
b111001 u
0%
b1010011001000111 &
b1010011001000111 ,
b1010011001000111 E$
b1110010111101100001101 $
b1110010111101100001101 '
